﻿{
  "name": "Иконостасова Ирина Валерьевна",
  "position": "Главный акушер – гинеколог",  
  "events": [
    {
      "eventType": "PhoneLine",	
      "phone": "223 13 39",
      "topic": "Вопросы организации акушерско-гинекологической службы г.Минска",
      "dateAndTimeOfEvent": "24.08.2016 14.00 – 16.00"
    },
    {
      "eventType": "PersonalAppointment",	
      "dateandTime": "1-й понедельник месяца с 09:00 до 11:00 2-й, 3-й, 4-й, 5-й понедельник месяца, с 15.00 до 18.00",
      "phone": "+375 17 213-14-36",
      "location": "№319"
    }
  ]   
}